{ 
    "_id" : ObjectId("5b3b22d3c02c05313482bbe1"), 
    "status" : NumberInt(1), 
    "first_name" : "Sudarshan", 
    "last_name" : "Dudhe", 
    "date_updated" : ISODate("2018-07-03T12:46:35.000+0000"), 
    "phone" : null, 
    "date_created" : ISODate("2018-07-03T12:46:35.000+0000"), 
    "password" : "simplify", 
    "user_name" : "Sudarshan Dudhe", 
    "email" : "sdudhe92@gmail.com"
}
